INDEX VERSION 1.129+/Users/aysehunt/Documents/workspace/.metadata/.plugins/org.eclipse.jdt.core
1271342938.index
1969767409.index
1315525803.index
2634225966.index
2867016645.index
521061135.index
506999199.index
4238018145.index
4036230714.index
3927879410.index
3735975305.index
2363563081.index
3767115374.index
3131291862.index
3670248649.index
404199878.index
1067258947.index
1753319412.index
