<?xml version="1.0" encoding="UTF-8"?>
<session version="1.0">
<refactoring comment="Convert local variable &apos;FortuneTeller.main().scan&apos; in &apos;FortuneTeller.main()&apos; to field&#x0A;- Original project: &apos;HelloWorld&apos;&#x0A;- Original element: &apos;FortuneTeller.main().scan&apos;&#x0A;- Field name: &apos;scan&apos;&#x0A;- Initialize field in method&#x0A;- Declared visibility: &apos;private&apos;&#x0A;- Declare field &apos;static&apos;" description="Convert local variable &apos;scan&apos; to field" final="false" flags="2" id="org.eclipse.jdt.ui.promote.temp" initialize="1" input="/src&lt;{FortuneTeller.java" name="scan" selection="105 29" stamp="1483999190832" static="true" version="1.0" visibility="2"/>
</session>